CovidMetrika
…
O próximo passo é organizarmos os dados em um formato apropriado para as nossas análises. Neste sentido, vamos filtrar os dados referentes ao Rio Grande do Sul utilizando a função filter do pacote dplyr. Logo em seguida vamos “empilhar” os dados, fazendo com que os valores referentes as tendências de mobilidade fiquem armazenados em uma coluna, e o tipo/local de “mobilidade” fique armazenado em uma outra coluna. Para tal, utilizaremos a função gather do pacote tidyr.

library(tidyr)

mobilidade <- mobilidade %>% 
  filter(sub_region_1 == "State of Rio Grande do Sul") %>% 
  select(-country_region_code, -country_region, -sub_region_1, -sub_region_2) %>% 
  gather(key = "Tipo", value = "Percentual", -date)

Note que antes de empilharmos os dados, mantivemos apenas as variáveis (colunas) que tínhamos interesse de analisarmos, utilizando a função select. Agora o novo objeto possui apenas três colunas:

mobilidade

## # A tibble: 582 x 3
##    date       Tipo                                               Percentual
##    <date>     <chr>                                                   <dbl>
##  1 2020-02-15 retail_and_recreation_percent_change_from_baseline          4
##  2 2020-02-16 retail_and_recreation_percent_change_from_baseline         -2
##  3 2020-02-17 retail_and_recreation_percent_change_from_baseline         -2
##  4 2020-02-18 retail_and_recreation_percent_change_from_baseline         -3
##  5 2020-02-19 retail_and_recreation_percent_change_from_baseline          1
##  6 2020-02-20 retail_and_recreation_percent_change_from_baseline          1
##  7 2020-02-21 retail_and_recreation_percent_change_from_baseline          3
##  8 2020-02-22 retail_and_recreation_percent_change_from_baseline         -3
##  9 2020-02-23 retail_and_recreation_percent_change_from_baseline          4
## 10 2020-02-24 retail_and_recreation_percent_change_from_baseline        -16
## # ... with 572 more rows
…
